…
# drop NA
variables <- c("sexo", "educ", "relig", "ideol", "barrio")
for (variable in variables) {
  elsoc_ego[["ego"]] <- elsoc_ego[["ego"]] %>% drop_na({{ variable }})
  elsoc_ego[["alter"]] <- elsoc_ego[["alter"]] %>% drop_na({{ variable }})
}

as_tibble(elsoc_ego$alter)
```

    # A tibble: 6,849 × 10
       .altID .egoID  sexo   edad educ  relig ideol barrio relacion rel  
       <chr>  <chr>   <fct> <dbl> <fct> <fct> <fct> <fct>     <dbl> <chr>
     1 1      1101011 1        77 2     1     5     1             1 fam  
     2 6      1101012 1        60 2     1     6     1             1 fam  
     3 11     1101013 2        54 1     1     6     1             3 fam  
     4 12     1101013 2        33 2     1     6     1             3 fam  
     5 16     1101021 1        55 2     1     6     1             4 nofam
     6 21     1101022 2        44 4     4     6     1             2 fam  
     7 26     1101023 1        40 2     1     6     1             3 fam  
     8 31     1101032 2        31 4     1     6     1             2 fam  
     9 32     1101032 1        57 2     1     5     1             1 fam  
    10 36     1101033 1        37 2     1     2     1             1 fam  
    # ℹ 6,839 more rows
…
<img src="index.markdown_strict_files/figure-markdown_strict/unnamed-chunk-20-1.png" width="768" />

### Tidy

``` r
broom::tidy(modelo1, exponentiate = TRUE, conf.int = TRUE, conf.level = 0.99)
```

    Warning in tidy.ergm(modelo1, exponentiate = TRUE, conf.int = TRUE, conf.level
    = 0.99): Exponentiating but model didn't use log or logit link.

    # A tibble: 30 × 8
       term      estimate std.error mcmc.error  statistic p.value conf.low conf.high
       <chr>        <dbl>     <dbl>      <dbl>      <dbl>   <dbl>    <dbl>     <dbl>
     1 offset(n… 0.000204     0              0 -Inf       0       0.000204  0.000204
     2 nodefact… 1.03         0.358          0    7.35e-2 9.41e-1 0.408     2.58    
     3 nodefact… 1.66         0.110          0    4.64e+0 3.43e-6 1.25      2.21    
     4 nodefact… 1.57         0.150          0    3.02e+0 2.52e-3 1.07      2.32    
     5 nodefact… 1.64         0.178          0    2.78e+0 5.38e-3 1.04      2.60    
     6 nodefact… 0.724        0.210          0   -1.54e+0 1.24e-1 0.421     1.24    
     7 nodefact… 0.681        0.184          0   -2.09e+0 3.65e-2 0.424     1.09    
     8 nodefact… 0.929        0.222          0   -3.32e-1 7.40e-1 0.524     1.65    
     9 nodefact… 1.00         0.210          0    7.32e-5 1.00e+0 0.583     1.72    
    10 nodefact… 1.53         0.190          0    2.25e+0 2.45e-2 0.940     2.50    
    # ℹ 20 more rows
…
