…
# drop NA
variables <- c("sexo", "educ", "relig", "ideol", "barrio")
for (variable in variables) {
  elsoc_ego[["ego"]] <- elsoc_ego[["ego"]] %>% drop_na({{ variable }})
  elsoc_ego[["alter"]] <- elsoc_ego[["alter"]] %>% drop_na({{ variable }})
}

as_tibble(elsoc_ego$alter)
```

    # A tibble: 6,849 × 10
       .altID .egoID  sexo   edad educ  relig ideol barrio relacion rel  
       <chr>  <chr>   <fct> <dbl> <fct> <fct> <fct> <fct>     <dbl> <chr>
     1 1      1101011 1        77 2     1     5     1             1 fam  
     2 6      1101012 1        60 2     1     6     1             1 fam  
     3 11     1101013 2        54 1     1     6     1             3 fam  
     4 12     1101013 2        33 2     1     6     1             3 fam  
     5 16     1101021 1        55 2     1     6     1             4 nofam
     6 21     1101022 2        44 4     4     6     1             2 fam  
     7 26     1101023 1        40 2     1     6     1             3 fam  
     8 31     1101032 2        31 4     1     6     1             2 fam  
     9 32     1101032 1        57 2     1     5     1             1 fam  
    10 36     1101033 1        37 2     1     2     1             1 fam  
    # ℹ 6,839 more rows
…
<img src="index.markdown_strict_files/figure-markdown_strict/unnamed-chunk-20-1.png" width="768" />

### Tidy

``` r
broom::tidy(modelo1, exponentiate = TRUE, conf.int = TRUE, conf.level = 0.99)
```

    Warning in tidy.ergm(modelo1, exponentiate = TRUE, conf.int = TRUE, conf.level
    = 0.99): Exponentiating but model didn't use log or logit link.

    # A tibble: 30 × 8
       term      estimate std.error mcmc.error  statistic p.value conf.low conf.high
       <chr>        <dbl>     <dbl>      <dbl>      <dbl>   <dbl>    <dbl>     <dbl>
     1 offset(n… 0.000204     0              0 -Inf       0       0.000204  0.000204
     2 nodefact… 1.03         0.375          0    0.0696  9.45e-1 0.391     2.70    
     3 nodefact… 1.67         0.112          0    4.57    4.77e-6 1.25      2.22    
     4 nodefact… 1.57         0.153          0    2.97    3.00e-3 1.06      2.33    
     5 nodefact… 1.64         0.185          0    2.68    7.33e-3 1.02      2.64    
     6 nodefact… 0.725        0.208          0   -1.55    1.22e-1 0.424     1.24    
     7 nodefact… 0.681        0.188          0   -2.04    4.16e-2 0.419     1.11    
     8 nodefact… 0.929        0.225          0   -0.327   7.43e-1 0.521     1.66    
     9 nodefact… 1.00         0.216          0    0.00182 9.99e-1 0.574     1.74    
    10 nodefact… 1.54         0.205          0    2.09    3.66e-2 0.905     2.61    
    # ℹ 20 more rows
…
