…
### Tidy

``` r
broom::tidy(modelo1, exponentiate = TRUE, conf.int = TRUE, conf.level = 0.99)
```

    Warning in tidy.ergm(modelo1, exponentiate = TRUE, conf.int = TRUE, conf.level
    = 0.99): Exponentiating but model didn't use log or logit link.

    # A tibble: 30 × 8
       term      estimate std.error mcmc.error statistic  p.value conf.low conf.high
       <chr>        <dbl>     <dbl>      <dbl>     <dbl>    <dbl>    <dbl>     <dbl>
     1 offset(n… 0.000411    0               0  -Inf     0        0.000411  0.000411
     2 nodefact… 0.452       0.159           0    -5.01  5.36e- 7 0.300     0.679   
     3 nodefact… 1.39        0.0532          0     6.26  3.83e-10 1.22      1.60    
     4 nodefact… 1.29        0.0662          0     3.82  1.36e- 4 1.09      1.53    
     5 nodefact… 1.08        0.0685          0     1.06  2.87e- 1 0.902     1.28    
     6 nodefact… 0.955       0.0889          0    -0.520 6.03e- 1 0.759     1.20    
     7 nodefact… 0.897       0.0741          0    -1.47  1.41e- 1 0.741     1.09    
     8 nodefact… 0.922       0.0853          0    -0.954 3.40e- 1 0.740     1.15    
     9 nodefact… 0.833       0.0784          0    -2.33  1.99e- 2 0.681     1.02    
    10 nodefact… 1.15        0.0734          0     1.92  5.47e- 2 0.953     1.39    
    # ℹ 20 more rows
…
